Анализ данных в R
…
```r
icdo3
```

```
## # A tibble: 10,484 x 6
##    `Site recode`       `Site Description` Histology `Histology Descriptio…
##    <chr>               <chr>                  <int> <chr>                 
##  1 C000-C006,C008-C009 LIP                      800 NEOPLASM              
##  2 C000-C006,C008-C009 LIP                      800 NEOPLASM              
##  3 C000-C006,C008-C009 LIP                      800 NEOPLASM              
##  4 C000-C006,C008-C009 LIP                      800 NEOPLASM              
##  5 C000-C006,C008-C009 LIP                      800 NEOPLASM              
##  6 C000-C006,C008-C009 LIP                      800 NEOPLASM              
##  7 C000-C006,C008-C009 LIP                      801 CARCINOMA, NOS        
##  8 C000-C006,C008-C009 LIP                      801 CARCINOMA, NOS        
##  9 C000-C006,C008-C009 LIP                      801 CARCINOMA, NOS        
## 10 C000-C006,C008-C009 LIP                      801 CARCINOMA, NOS        
## # ... with 10,474 more rows, and 2 more variables:
## #   `Histology/Behavior` <chr>, `Histology/Behavior Description` <chr>
```
* Откуда взял таблицу -- не помню :(

--- 

## Коды морфиологии

```r
icdo3_histology <- icdo3 %>%
    select(morphology=`Histology/Behavior`, morphology_desc=`Histology/Behavior Description`) %>%
    unique
icdo3_histology
```

```
## # A tibble: 721 x 2
##    morphology morphology_desc                   
##    <chr>      <chr>                             
##  1 8000/3     Neoplasm, malignant               
##  2 8001/3     Tumor cells, malignant            
##  3 8002/3     Malignant tumor, small cell type  
##  4 8003/3     Malignant tumor, giant cell type  
##  5 8004/3     Malignant tumor, spindle cell type
##  6 8005/3     Malignant tumor, clear cell type  
##  7 8010/2     Carcinoma in situ, NOS            
##  8 8010/3     Carcinoma, NOS                    
##  9 8011/3     Epithelioma, malignant            
## 10 8012/3     Large cell carcinoma, NOS         
## # ... with 711 more rows
```
…
